bind-libs-9.9.4-18.ael7b_1.2.ppc64le
bind-libs-lite-9.9.4-18.ael7b_1.2.ppc64le
bind-license-9.9.4-18.ael7b_1.2.noarch
bind-utils-9.9.4-18.ael7b_1.2.ppc64le
binutils-2.23.52.0.1-30.ael7b_1.2.ppc64le
ca-certificates-2015.2.4-70.0.ael7b_1.noarch
cups-1.6.3-17.ael7b_1.1.ppc64le
cups-client-1.6.3-17.ael7b_1.1.ppc64le
cups-filesystem-1.6.3-17.ael7b_1.1.noarch
cups-libs-1.6.3-17.ael7b_1.1.ppc64le
device-mapper-1.02.93-3.ael7b_1.1.ppc64le
device-mapper-event-1.02.93-3.ael7b_1.1.ppc64le
device-mapper-event-libs-1.02.93-3.ael7b_1.1.ppc64le
device-mapper-libs-1.02.93-3.ael7b_1.1.ppc64le
lvm2-2.02.115-3.ael7b_1.1.ppc64le
lvm2-libs-2.02.115-3.ael7b_1.1.ppc64le
dnsmasq-2.66-13.ael7b_1.ppc64le
dracut-033-241.ael7b_1.5.ppc64le
dracut-config-rescue-033-241.ael7b_1.5.ppc64le
dracut-network-033-241.ael7b_1.5.ppc64le
freetype-2.4.11-10.ael7b_1.1.ppc64le
glibc-2.17-79.ael7b_1.4.ppc64le
glibc-common-2.17-79.ael7b_1.4.ppc64le
gnutls-3.3.8-12.ael7b_1.1.ppc64le
hwdata-0.252-7.8.ael7b_1.ppc64le
iputils-20121221-6.ael7b_1.1.ppc64le
kernel-3.10.0-229.26.2.ael7b.ppc64le
kernel-headers-3.10.0-229.26.2.ael7b.ppc64le
kernel-tools-3.10.0-229.26.2.ael7b.ppc64le
kernel-tools-libs-3.10.0-229.26.2.ael7b.ppc64le
kexec-tools-2.0.7-19.ael7b_1.2.ppc64le
libgcrypt-1.5.3-12.ael7b_1.1.ppc64le
libpcap-1.5.3-4.ael7b_1.2.ppc64le
libreswan-3.12-10.1.ael7b_1.ppc64le
libuser-0.60-7.ael7b_1.ppc64le
libxml2-2.9.1-5.ael7b_1.2.ppc64le
libxml2-python-2.9.1-5.ael7b_1.2.ppc64le
nspr-4.10.8-2.ael7b_1.ppc64le
nss-3.19.1-5.ael7b_1.ppc64le
nss-sysinit-3.19.1-5.ael7b_1.ppc64le
nss-tools-3.19.1-5.ael7b_1.ppc64le
nss-util-3.19.1-5.ael7b_1.ppc64le
nss-softokn-3.16.2.3-13.ael7b_1.ppc64le
nss-softokn-freebl-3.16.2.3-13.ael7b_1.ppc64le
openssh-6.6.1p1-12.ael7b_1.ppc64le
openssh-clients-6.6.1p1-12.ael7b_1.ppc64le
openssh-keycat-6.6.1p1-12.ael7b_1.ppc64le
openssh-server-6.6.1p1-12.ael7b_1.ppc64le
openssl-1.0.1e-42.ael7b_1.9.ppc64le
openssl-libs-1.0.1e-42.ael7b_1.9.ppc64le
python-2.7.5-18.ael7b_1.1.ppc64le
python-libs-2.7.5-18.ael7b_1.1.ppc64le
samba-libs-4.1.12-23.ael7b_1.ppc64le
libwbclient-4.1.12-23.ael7b_1.ppc64le
selinux-policy-3.13.1-23.ael7b_1.8.noarch
selinux-policy-devel-3.13.1-23.ael7b_1.8.noarch
selinux-policy-mls-3.13.1-23.ael7b_1.8.noarch
selinux-policy-targeted-3.13.1-23.ael7b_1.8.noarch
libipa_hbac-1.12.2-58.ael7b_1.14.ppc64le
libsss_idmap-1.12.2-58.ael7b_1.14.ppc64le
libsss_nss_idmap-1.12.2-58.ael7b_1.14.ppc64le
sssd-client-1.12.2-58.ael7b_1.14.ppc64le
sssd-common-1.12.2-58.ael7b_1.14.ppc64le
sssd-common-pac-1.12.2-58.ael7b_1.14.ppc64le
sssd-ipa-1.12.2-58.ael7b_1.14.ppc64le
sssd-krb5-common-1.12.2-58.ael7b_1.14.ppc64le
systemd-208-20.ael7b_1.5.ppc64le
systemd-libs-208-20.ael7b_1.5.ppc64le
systemd-sysv-208-20.ael7b_1.5.ppc64le
libgudev1-208-20.ael7b_1.5.ppc64le
trousers-0.3.11.2-4.ael7b_1.ppc64le
tzdata-2015e-1.ael7b.noarch
util-linux-2.23.2-22.ael7b_1.ppc64le
libblkid-2.23.2-22.ael7b_1.ppc64le
libmount-2.23.2-22.ael7b_1.ppc64le
libuuid-2.23.2-22.ael7b_1.ppc64le
wpa_supplicant-2.0-17.ael7b_1.ppc64le
